/* XPM */
static char *disintegrate[] = {
/* columns rows colors chars-per-pixel */
"153 153 186 2",
"   c #000000",
".  c #010101",
"X  c #020202",
"o  c #030303",
"O  c #040404",
"+  c #050505",
"@  c #060606",
"#  c #070707",
"$  c #080808",
"%  c #090909",
"&  c #0A0A0A",
"*  c #0B0B0B",
"=  c #0C0C0C",
"-  c #0D0D0D",
";  c #0E0E0E",
":  c #0F0F0F",
">  c #101010",
",  c #111111",
"<  c #121212",
"1  c #131313",
"2  c #141414",
"3  c #151515",
"4  c #161616",
"5  c #171717",
"6  c #181818",
"7  c #191919",
"8  c #1A1A1A",
"9  c #1B1B1B",
"0  c #1C1C1C",
"q  c #1D1D1D",
"w  c #1E1E1E",
"e  c #1F1F1F",
"r  c #222222",
"t  c #232323",
"y  c #242424",
"u  c #252525",
"i  c #262626",
"p  c #282828",
"a  c #2A2A2A",
"s  c #2B2B2B",
"d  c #2E2E2E",
"f  c #303030",
"g  c #323232",
"h  c #333333",
"j  c #353535",
"k  c #393939",
"l  c #3B3B3B",
"z  c #3C3C3C",
"x  c #3F3F3F",
"c  c #404040",
"v  c #444444",
"b  c #454545",
"n  c #464646",
"m  c #484848",
"M  c #494949",
"N  c #4A4A4A",
"B  c #4C4C4C",
"V  c #4D4D4D",
"C  c #4E4E4E",
"Z  c #4F4F4F",
"A  c #515151",
"S  c #525252",
"D  c #535353",
"F  c #545454",
"G  c #555555",
"H  c #565656",
"J  c #575757",
"K  c #5A5A5A",
"L  c #5B5B5B",
"P  c #5D5D5D",
"I  c #5E5E5E",
"U  c #5F5F5F",
"Y  c #606060",
"T  c #616161",
"R  c #636363",
"E  c #646464",
"W  c #656565",
"Q  c #666666",
"!  c #676767",
"~  c #686868",
"^  c #696969",
"/  c #6A6A6A",
"(  c #6B6B6B",
")  c #6D6D6D",
"_  c #6F6F6F",
"`  c #707070",
"'  c #717171",
"]  c #727272",
"[  c #747474",
"{  c #757575",
"}  c #767676",
"|  c #777777",
" . c #787878",
".. c #797979",
"X. c #7A7A7A",
"o. c #7B7B7B",
"O. c #7C7C7C",
"+. c #7D7D7D",
"@. c #7E7E7E",
"#. c #7F7F7F",
"$. c #808080",
"%. c #818181",
"&. c #828282",
"*. c #838383",
"=. c #858585",
"-. c #868686",
";. c #878787",
":. c #888888",
">. c #898989",
",. c #8A8A8A",
"<. c #8B8B8B",
"1. c #8C8C8C",
"2. c #8D8D8D",
"3. c #8E8E8E",
"4. c #8F8F8F",
"5. c #909090",
"6. c #919191",
"7. c #939393",
"8. c #949494",
"9. c #959595",
"0. c #969696",
"q. c #979797",
"w. c #989898",
"e. c #9A9A9A",
"r. c #9B9B9B",
"t. c #9C9C9C",
"y. c #9D9D9D",
"u. c #9E9E9E",
"i. c #9F9F9F",
"p. c #A0A0A0",
"a. c #A1A1A1",
"s. c #A2A2A2",
"d. c #A4A4A4",
"f. c #A5A5A5",
"g. c #A6A6A6",
"h. c #A7A7A7",
"j. c #A8A8A8",
"k. c #A9A9A9",
"l. c #AAAAAA",
"z. c #ABABAB",
"x. c #ACACAC",
"c. c #ADADAD",
"v. c #AEAEAE",
"b. c #AFAFAF",
"n. c #B0B0B0",
"m. c #B1B1B1",
"M. c #B2B2B2",
"N. c #B3B3B3",
"B. c #B4B4B4",
"V. c #B5B5B5",
"C. c #B6B6B6",
"Z. c #B7B7B7",
"A. c #B8B8B8",
"S. c #B9B9B9",
"D. c #BABABA",
"F. c #BBBBBB",
"G. c #BCBCBC",
"H. c #BDBDBD",
"J. c #BEBEBE",
"K. c #BFBFBF",
"L. c #C0C0C0",
"P. c #C1C1C1",
"I. c #C2C2C2",
"U. c #C3C3C3",
"Y. c #C4C4C4",
"T. c #C5C5C5",
"R. c #C6C6C6",
"E. c #C7C7C7",
"W. c #C8C8C8",
"Q. c #C9C9C9",
"!. c #CACACA",
"~. c #CBCBCB",
"^. c #CCCCCC",
"/. c #CDCDCD",
"(. c #CECECE",
"). c #CFCFCF",
"_. c #D0D0D0",
"`. c #D1D1D1",
"'. c #D2D2D2",
"]. c #D3D3D3",
"[. c #D4D4D4",
"{. c #D5D5D5",
"}. c #D6D6D6",
"|. c #D7D7D7",
" X c #D8D8D8",
".X c #D9D9D9",
/* pixels */
"                                                                                                                                                                                                                                                                                                                  ",
"                                                                                                                                                                                                                                                                                                                  ",
"                                                                                                                                                                                                                                                                                                                  ",
"                                                                                                                                                                                                                                                                                                                  ",
"                                                                                                                                                                                                                                                                                                                  ",
"                                                                                                                                                                                                                                                                                                                  ",
"                                                                                                                                                                                                                                                                                                                  ",
"                                                                                                                                                                                                                                                                                                                  ",
"                                                                                                                                                                                                                                                                                                                  ",
"                                                                                                                                                                                                                                                                                                                  ",
"                                                                                                                                                                                                                                                                                                                  ",
"                                                                                                                                                                                                                                                                                                                  ",
"                                                                                                                                                                                                                                                                                                                  ",
"                                                                                                                                                                                                                                                                                                                  ",
"                                                                                                                                                                                                                                                                                                                  ",
"                                                                                                                                                                                                                                                                                                                  ",
"                                                                                                                                                                                                                                                                                                                  ",
"                                                                                                                                                                                                                                                                                                                  ",
"                                                                                                                                                                                                                                                                                                                  ",
"                                                                                                                                                                                                                                                                                                                  ",
"                                                                                                                                                                                                                                                                                                                  ",
"                                                                                                                                                                                                                                                                                                                  ",
"                                                                                                                                                                                                                                                                                                                  ",
"                                                                                                                                                                                                                                                                                                                  ",
"                                                                                                                                                                                                                                                                                                                  ",
"                                                                                                                                                                                                                                                                                                                  ",
"                                                                                                                                                                                                                                                                                                                  ",
"                                                                                                                                                                                                                                                                                                                  ",
"                                                                                                                                                                                                                                                                                                                  ",
"                                                                                                                                                      .                                                                                                                                                           ",
"                                                                                                                                                  . . . .                                                                                                                                                         ",
"                                                                                                                                                .         .                                                                                                                                                       ",
"                                                                                                                                              . o         X                                                                                                                                                       ",
"                                                                                                                                                  = >     o                                                                                                                                                       ",
"                                                                                                                                                          @ o X .                                                                                                                                                 ",
"                                                                                                                                            .             ; * o .                                                                                                                                                 ",
"                                                                                                                                            X         D z       X .                                                                                                                                               ",
"                                                                                                                                          . #         ( G       # X                                                                                                                                               ",
"                                                                                                                                        .     s Z u.v.m.0.F f q     o . .                                                                                                                                         ",
"                                                                                                                                      . O     c ! b.D.P.b./ m g     $ o X .                                                                                                                                       ",
"                                                                                                                                      . #     P @.{..X|.).v.{ U         o .                                                                                                                                       ",
"                                                                                                                                      o :     ` :. X.X.X|.P.<. .        @ X                                                                                                                                       ",
"                                                                                                                                              #.3.!.!..X.XW.V.h.&.Q         .                                                                                                                                     ",
"                                                                                                                                              ;.4.!.!..X.X!.F.Z.0.$.        o                                                                                                                                     ",
"                                                                                                                                  . #     J [ n.V..X.X.X.X.X.X.X].I.K x     + .                                                                                                                                   ",
"                                                                                                                                  o -     E +.M.V..X.X.X.X.X.X.X X(.~ A     * X                                                                                                                                   ",
"                                                                                                                                  O 6     W } I.U..X.X.X.X.X.X.XG.A.,.|     = o                                                                                                                                   ",
"                                                                                                                                  % u     ) ..U.U..X.X.X.X.X.X.XG.F.5.%.    4 #                                                                                                                                   ",
"                                                                                                                                o * i     o.%..X.X.X.X.X.X.X.X.X`.`.(.P.Y n     @ .                                                                                                                               ",
"                                                                                                                              . @ 1 h     $.&..X.X.X.X.X.X.X.X.X`.`.`./.) J     - O                                                                                                                               ",
"                                                                                                                              . @     { 7.I.U..X.X.X.X.X.X.X.X.X.X.X.X.Xi.>.        . .                                                                                                                           ",
"                                                                                                                              X =     ;.r.U.U..X.X.X.X.X.X.X.X.X.X.X.X.Xf.w.        O .                                                                                                                           ",
"                                                                                                                              o ,     g.B..X.X.X.X.X.X.X.X.X.X.X.X.XU.U.U.H.{ K     $ X                                                                                                                           ",
"                                                                                                                              $ w     b.V..X.X.X.X.X.X.X.X.X.X.X.X.XU.U.U.P.#.^     < +                                                                                                                           ",
"                                                                                                                          . #     R +.%.&..X.X.X.X.X.X.X.X.X.X.X.X.X.X.X!.Q.!.V.    7 % O . .                                                                                                                     ",
"                                                                                                                        .         A.].!.!..X.X.X.X.X.X.X.X.X.X.X.X.X.X.X`.`.|.!.4.)         . .                                                                                                                   ",
"                                                                                                                      . X         !.|.!.!..X.X.X.X.X.X.X.X.X.X.X.X.X.X.X`.`..X].i.&.        . .                                                                                                                   ",
"                                                                                                                        X         Y.!..X.X.X.X.X.X.X.X.X.X.X.X.X.X.X.X.X.X.X.X X/.N.C g     o .                                                                                                                   ",
"                                                                                                                      . O         W.!..X.X.X.X.X.X.X.X.X.X.X.X.X.X.X.X.X.X.X.X.X}.T.P v     + .                                                                                                                   ",
"                                                                                                                              3.g.Q.!..X.X.X.X.X.X.X.X.X.X.X.X.X.X.X.X.X.X.X.X.X X_.p.#.        .                                                                                                                 ",
"                                                                                                                              0.l.!.!..X.X.X.X.X.X.X.X.X.X.X.X.X.X.X.X.X.X.X.X.X.X|.v.8.        X .                                                                                                               ",
"                                                                                                                      X :     r.l..X.X.X.X.X.X.X.X.X.X.X.X.X.X.X.X.X.X.X.X.X.X.X.X.X].K.-.L t ;                                                                                                                   ",
"                                                                                                                      + 5     a.z..X.X.X.X.X.X.X.X.X.X.X.X.X.X.X.X.X.X.X.X.X.X.X.X.X X/.u...j 9     X                                                                                                             ",
"                                                                                                                          U 4.!.[.).).(.(..X.X.X.X.X.X.X.X.X.X.X.X.X.X.X.X.X.X.X.X.X]._.W.j.N d     o                                                                                                             ",
"                                                                                                                          ] t.`.}.).).(.(..X.X.X.X.X.X.X.X.X.X.X.X.X.X.X.X.X.X.X.X.X].'.'.K.U b     &                                                                                                             ",
"                                                                                                                  X $         Q.~.Y.Y.).)..X.X.X.X.X.X.X.X.X.X.X.X.X.X.X.X.X.X.X`.`.Q.Q.`.Q.&.(                                                                                                                   ",
"                                                                                                                X + 1         !.~.Y.Y.).)..X.X.X.X.X.X.X.X.X.X.X.X.X.X.X.X.X.X.X`.`.Q.Q.].`.3.$.                                                                                                                  ",
"                                                                                                                  o >     c.D..X.X].].|.|..X.X.X.X.X.X.X.X.X.X.X.X.X.X.X.X.X.X.X.X.X.X.X}.}.E.G.| J                                                                                                               ",
"                                                                                                                          A.G..X.X].].|.|..X.X.X.X.X.X.X.X.X.X.X.X.X.X.X.X.X.X.X.X.X.X.X}.}.!.E.*.W                                                                                                               ",
"                                                                                                                        a _.`..X.X.X.X.X.X.X.X.X.X.X.X.X.X.X.X.X.X.X.X.X.X.X.X.X.X.X(.(.T.T.!.W.M.2.      X                                                                                                       ",
"                                                                                                                        r `.`..X.X.X.X.X.X.X.X.X.X.X.X.X.X.X.X.X.X.X.X.X.X.X.X.X.X.X(.(.T.T.!.W.V.8.      o                                                                                                       ",
"                                                                                                                      X f ~.~.Q.Q.].]..X.X.X.X.X.X.X.X.X.X.X.X.X.X.X}.}.(.(.].]..X.X.X.X.X.X|.{.h.<.      o                                                                                                       ",
"                                                                                                                    o r F ~.~.Q.Q.].]..X.X.X.X.X.X.X.X.X.X.X.X.X.X.X}.}.(.(.].]..X.X.X.X.X.X|.}.l.7.      @ .                                                                                                     ",
"                                                                                                                    8 &.&.(.(.~.~.{.{.{.{..X.X.X.X.X.X.X.X.X.X.X.X.X{.{.Q.Q.(.(.`.`.(.(.].].(./.R.n.      $ X                                                                                                     ",
"                                                                                                                      &.&.(.(.~.~.{.{.{.{..X.X.X.X.X.X.X.X.X.X.X.X.X{.{.Q.Q.(.(.`.`.(.(.].].(.(.!.F.      1 + X                                                                                                   ",
"                                                                                                                    8 V.V.Q.Q././.{.{.Y.Y.(.(.).).Q.Q.].]..X.X.X.X.X.X.X.X.X.X.X`.`.(.(.{.{.R.R.I.F.q.                                                                                                            ",
"                                                                                                                  ; B V.V.Q.Q././.{.{.Y.Y.(.(.).).Q.Q.].]..X.X.X.X.X.X.X.X.X.X.X`.`.(.(.{.{.R.R.U.P.f.                                                                                                            ",
"                                                                                                              $ M &.&..X.X.X.X.X.X.X.X{.{.{.{.].].(.(.{.{..X.X.X.X.X.X.X{.{.].].`.`.Y.Y.}.}.{.{.'._.^.O.^                                                                                                         ",
"                                                                                                            2 A | b.b..X.X!.!.Y.Y.{.{.E.E.Y.Y.{.{..X.X.X.X.X.X.X.X.X.X.X/./.`.`..X.X|.|.R.R.'.'.!.!.].J.n.l .           .                                                                                         ",
"                                                                                                          + ' +.+.b.b..X.X!.!.Y.Y.{.{.E.E.Y.Y.{.{..X.X.X.X.X.X.X.X.X.X.X/./.`.`..X.X|.|.R.R.'.'.!.!.{.U.J.U 9                                                                                                     ",
"                                                                                                        . y g.Y.Y.Y.Y.!.!.(.(..X.X|.|.).).|.|..X.X).).Y.Y.(..X.XE.E.T.T.].].Q.Q.{.{.|.|.R.R.Y.Y.Y.Y.Y./.^.x.s.8 .           o                                                                                     ",
"                                                                                                      . 0 S g.Y.Y.Y.Y.!.!.(.(..X.X|.|.).).|.|..X.X).).Y.Y.(..X.XE.E.T.T.].].Q.Q.{.{.|.|.R.R.Y.Y.Y.Y.Y././.m.v.b <           @                                                                                     ",
"                                                                                                    1 H g.g.W..X.XE.E.Q.Q././.].].`.`././.E.E.Y.Y.).).(.(.'..X.X.X.X.X.X`.`.Q.Q.'.'.|.|.R.R.~.~.!.!.Y.Y.Y.Y.Y.H.V.o                                                                                               ",
"                                                                                                  X I ( g.g.W..X.XE.E.Q.Q././.].].`.`././.E.E.Y.Y.).).(.(.'..X.X.X.X.X.X`.`.Q.Q.'.'.|.|.R.R.~.~.!.!.Y.Y.Y.Y.Y.J.H.a X                                                                                             ",
"                                                                                                    p.p.Y.Y.~.(.(.T.T.|.|..X.XE.E.Y.Y.E.E././.(.(.|.|..X.X'.Y.Y.(.(.}.}..X.X].].(.(.Q.Q.Y.Y.~.~..X.X].Y.Y.Y.Y.J.J.e.9.        X @                                                                                 ",
"                                                                                                    p.p.Y.Y.~.(.(.T.T.|.|..X.XE.E.Y.Y.E.E././.(.(.|.|..X.X'.Y.Y.(.(.}.}..X.X].].(.(.Q.Q.Y.Y.~.~..X.X].Y.Y.Y.Y.J.J.e.e.        :                                                                                   ",
"                                                                                                    4.4.Y.Y.Q.!.!.Y.Y.Y.Y.Y.Y.Y.Y.Y.Y.E.E.).).R.R.(.(..X.X{.(.(.!.!.Y.Y.Y.Y.Y.Y.T.T.Q.Q.T.T.Y.Y.Y.Y.Y.Y.Y.Y.Y.Y.Y.Y.Y.A.V.        + g                                                                             ",
"                                                                                                    4.4.Y.Y.Q.!.!.Y.Y.Y.Y.Y.Y.Y.Y.Y.Y.E.E.).).R.R.(.(..X.X{.(.(.!.!.Y.Y.Y.Y.Y.Y.T.T.Q.Q.T.T.Y.Y.Y.Y.Y.Y.Y.Y.Y.Y.Y.Y.Y.A.A.        > #                                                                             ",
"                                                                                                    e.e.Y.Y.Y.Y.Y.Y.Y.Y.Y.Y.Y.Y.Y.Y.Y.|.|.'.'.T.T././.(.(./.|.|.{.{.Y.Y.{.{.Y.Y.Q.Q..X.X!.!.Y.Y.Y.Y.Y.Y.Y.Y.Y.Y.Y.g.g.+.+.        .                                                                               ",
"                                                                                              .     e.e.Y.Y.Y.Y.Y.Y.Y.Y.Y.Y.Y.Y.Y.Y.Y.|.|.'.'.T.T././.(.(./.|.|.{.{.Y.Y.{.{.Y.Y.Q.Q..X.X!.!.Y.Y.Y.Y.Y.Y.Y.Y.Y.Y.Y.g.g.+.+.                                                                                        ",
"                                                                                                +.4.Y.Y.Y.Y.Y.Y.Y.Y.Y.Y.Y.{.{.(.(.Y.Y.Y.Y.Y.Y.Y.Y.Y.Y.Y.Y.Y.R.R.T.T.Y.Y.Y.Y.Y.Y.Y.Y.Y.Y.Y.Y.Y.Y.Y.Y.Y.Y.Y.Y.Y.Y.Y.J.J.4.4.4.4.    .     o                                                                         ",
"                                                                                          0     4.4.Y.Y.Y.Y.Y.Y.Y.Y.Y.Y.Y.{.{.(.(.Y.Y.Y.Y.Y.Y.Y.Y.Y.Y.Y.Y.Y.R.R.T.T.Y.Y.Y.Y.Y.Y.Y.Y.Y.Y.Y.Y.Y.Y.Y.Y.Y.Y.Y.Y.Y.Y.Y.J.J.4.4.4.4.    : .                                                                             ",
"                                                                                                +.+.Y.Y.Y.Y.Y.Y.Y.Y.Y.Y.Y.Y.Y.Y.Y.Y.Y.Y.Y.].].(.(.Y.Y.Y.Y.Y.Y.Y.Y.Y.Y.Y.Y.Y.T.T.!.!.Y.Y.Y.Y.Y.Y.Y.Y.Y.Y.Y.Y.Y.Y.Y.Y.Y.Y.Y.p.p.4.4.        O                                                                       ",
"                                                                                      .         +.+.Y.Y.Y.Y.Y.Y.Y.Y.Y.Y.Y.Y.Y.Y.Y.Y.Y.Y.Y.].].(.(.Y.Y.Y.Y.Y.Y.Y.Y.Y.Y.Y.Y.Y.T.T.!.!.Y.Y.Y.Y.Y.Y.Y.Y.Y.Y.Y.Y.Y.Y.Y.Y.Y.Y.Y.p.p.4.4.        .                                                                       ",
"                                                                                            *.*.Y.Y.Y.Y.Y.Y.Y.Y.Y.Y.Y.Y.Y.Y.Y.Y.Y.Y.Y.T.T.(.(.T.T.Y.Y.Y.Y.Y.Y.Y.Y.Y.Y.Y.Y.Y.~.~.(.(.Y.Y.Y.Y.Y.Y.Y.Y.Y.Y.Y.Y.Y.Y.Y.Y.Y.Y.Y.Y.Y.M.M.          .                                                                     ",
"                                                                                            *.*.Y.Y.Y.Y.Y.Y.Y.Y.Y.Y.Y.Y.Y.Y.Y.Y.Y.Y.Y.T.T.(.(.T.T.Y.Y.Y.Y.Y.Y.Y.Y.Y.Y.Y.Y.Y.~.~.(.(.Y.Y.Y.Y.Y.Y.Y.Y.Y.Y.Y.Y.Y.Y.Y.Y.Y.Y.Y.Y.Y.M.M.                                                                                ",
"                                                                                        +.+.M.M.Y.Y.Y.Y.Y.Y.Y.Y.Y.Y.Y.Y.Y.Y.Y.Y.Y.Y.Y.Y.Y.Y.Y.Y.Y.Y.Y.Y.Y.Y.Y.Y.Y.Y.Y.Y.Y.Y.Y.Y.Y.Y.Y.Y.Y.Y.Y.Y.Y.Y.Y.Y.Y.Y.Y.Y.Y.Y.Y.Y.Y.Y.Y.Y.Y.>.>.            .                                                               ",
"                                                                                        +.+.M.M.Y.Y.Y.Y.Y.Y.Y.Y.Y.Y.Y.Y.Y.Y.Y.Y.Y.Y.Y.Y.Y.Y.Y.Y.Y.Y.Y.Y.Y.Y.Y.Y.Y.Y.Y.Y.Y.Y.Y.Y.Y.Y.Y.Y.Y.Y.Y.Y.Y.Y.Y.Y.Y.Y.Y.Y.Y.Y.Y.Y.Y.Y.Y.Y.Y.>.>.    $ . .   O                                                               ",
"                                                                                    +.+.J.J.Y.Y.Y.Y.Y.Y.Y.Y.Y.Y.Y.Y.Y.Y.Y.Y.Y.Y.Y.Y.Y.Y.Y.Y.Y.Y.Y.Y.Y.Y.Y.Y.Y.Y.Y.Y.Y.Y.Y.Y.Y.Y.Y.Y.Y.Y.Y.Y.Y.Y.Y.Y.Y.Y.Y.Y.Y.Y.Y.Y.Y.Y.Y.Y.Y.Y.Y.x.x.              > X                                                           ",
"                                                                                        Y.Y.P.P.P.P.Y.Y.Y.Y.Y.Y.Y.Y.Y.Y.Y.Y.Y.Y.Y.Y.Y.Y.Y.Y.Y.Y.Y.Y.Y.Y.Y.Y.Y.Y.Y.Y.Y.Y.Y.Y.Y.Y.Y.Y.Y.Y.Y.Y.Y.Y.Y.Y.Y.Y.Y.Y.Y.Y.Y.Y.Y.Y.Y.Y.Y.L.L.c.c.4.4.g.g.a.;.X.k O   X                                                       ",
"                                                                                        Y.Y.P.P.P.P.Y.Y.Y.Y.Y.Y.Y.Y.Y.Y.Y.Y.Y.Y.Y.Y.Y.Y.Y.Y.Y.Y.Y.Y.Y.Y.Y.Y.Y.Y.Y.Y.Y.Y.Y.Y.Y.Y.Y.Y.Y.Y.Y.Y.Y.Y.Y.Y.Y.Y.Y.Y.Y.Y.Y.Y.Y.Y.Y.Y.Y.L.L.c.c.4.4.g.g.a.;.;.B ; X %                                                       ",
"                                                                                    A.A.Y.Y.B.B.B.B.P.P.Y.Y.Y.Y.Y.Y.Y.Y.Y.Y.Y.Y.Y.Y.Y.Y.Y.Y.Y.Y.Y.Y.Y.Y.Y.Y.Y.Y.Y.Y.Y.Y.Y.Y.Y.Y.Y.Y.Y.Y.Y.Y.Y.Y.Y.Y.Y.Y.Y.Y.Y.Y.Y.Y.Y.Y.Y.Y.Y.F.F.V.V.N.N.G.G.B.v.v.Q k =                                                         ",
"                                                                                    A.A.Y.Y.B.B.B.B.P.P.Y.Y.Y.Y.Y.Y.Y.Y.Y.Y.Y.Y.Y.Y.Y.Y.Y.Y.Y.Y.Y.Y.Y.Y.Y.Y.Y.Y.Y.Y.Y.Y.Y.Y.Y.Y.Y.Y.Y.Y.Y.Y.Y.Y.Y.Y.Y.Y.Y.Y.Y.Y.Y.Y.Y.Y.Y.Y.Y.F.F.V.V.N.N.G.G.B.v.v.Q Q T l                                                       ",
"                                                                            &.&.A.A.Y.Y.Y.Y.S.S.A.A.I.I.Y.Y.Y.Y.Y.Y.Y.Y.Y.Y.Y.Y.Y.Y.Y.Y.Y.Y.Y.Y.Y.Y.Y.Y.Y.Y.Y.Y.Y.Y.Y.Y.Y.Y.Y.Y.Y.Y.Y.Y.Y.Y.Y.Y.Y.Y.Y.Y.Y.Y.Y.Y.Y.Y.Y.Y.Y.Y.Y.Y.Y.C.C.N.N.N.N.C.1.1.Q Q Q Q i .       .                                           ",
"                                                                            &.&.A.A.Y.Y.Y.Y.S.S.A.A.I.I.Y.Y.Y.Y.Y.Y.Y.Y.Y.Y.Y.Y.Y.Y.Y.Y.Y.Y.Y.Y.Y.Y.Y.Y.Y.Y.Y.Y.Y.Y.Y.Y.Y.Y.Y.Y.Y.Y.Y.Y.Y.Y.Y.Y.Y.Y.Y.Y.Y.Y.Y.Y.Y.Y.Y.Y.Y.Y.Y.Y.Y.C.C.N.N.N.N.C.1.1.Q Q Q Q W q O O $ .                                           ",
"                                                                o       k.k.v.v.A.A.Y.Y.L.L.L.L.Y.Y.Y.Y.Y.Y.Y.Y.Y.Y.Y.Y.Y.Y.Y.Y.Y.Y.Y.Y.Y.Y.Y.Y.Y.Y.Y.Y.Y.Y.Y.Y.Y.Y.Y.Y.Y.Y.Y.Y.Y.Y.Y.Y.Y.Y.Y.Y.Y.Y.Y.Y.Y.Y.Y.Y.Y.Y.Y.Y.Y.Y.Y.K.K.D.D.Z.Z.N.N.H.M.M....._ _ _ _ Q Q V                                             ",
"                                                                @       k.k.v.v.A.A.Y.Y.L.L.L.L.Y.Y.Y.Y.Y.Y.Y.Y.Y.Y.Y.Y.Y.Y.Y.Y.Y.Y.Y.Y.Y.Y.Y.Y.Y.Y.Y.Y.Y.Y.Y.Y.Y.Y.Y.Y.Y.Y.Y.Y.Y.Y.Y.Y.Y.Y.Y.Y.Y.Y.Y.Y.Y.Y.Y.Y.Y.Y.Y.Y.Y.Y.Y.K.K.D.D.Z.Z.N.N.H.M.M....._ _ _ _ Q Q T .                                           ",
"                                                                +   &.&.J.J.B.B.Z.Z.P.P.B.B.N.N.K.K.B.B.C.C.Y.Y.Y.Y.Y.Y.Y.Y.Y.Y.Y.Y.Y.Y.Y.Y.Y.Y.Y.Y.Y.Y.Y.Y.Y.Y.Y.Y.Y.Y.Y.Y.Y.Y.Y.Y.Y.Y.Y.Y.Y.Y.Y.Y.Y.Y.Y.Y.Y.Y.Y.P.P.K.K.J.J.N.N.B.B.H.H.Y.Y.Z.N.N.v.v.i.i.&.&.Q Q Q 6 .                                         ",
"                                                              o p   &.&.J.J.B.B.Z.Z.P.P.B.B.N.N.K.K.B.B.C.C.Y.Y.Y.Y.Y.Y.Y.Y.Y.Y.Y.Y.Y.Y.Y.Y.Y.Y.Y.Y.Y.Y.Y.Y.Y.Y.Y.Y.Y.Y.Y.Y.Y.Y.Y.Y.Y.Y.Y.Y.Y.Y.Y.Y.Y.Y.Y.Y.Y.Y.Y.P.P.K.K.J.J.N.N.B.B.H.H.Y.Y.Z.N.N.v.v.i.i.&.&.Q Q Q D a ; + #                                   ",
"                                                                  _ d.d.F.F.V.V.Z.Z.H.H.I.I.L.L.P.P.F.F.F.F.Y.Y.Y.Y.Y.Y.Y.Y.Y.Y.Y.Y.Y.Y.Y.Y.Y.Y.Y.Y.Y.Y.Y.Y.Y.Y.Y.Y.Y.Y.Y.Y.Y.Y.Y.Y.Y.Y.Y.Y.Y.Y.Y.Y.Y.Y.Y.K.K.P.P.G.G.Z.Z.Z.Z.F.F.G.G.N.N.N.N.N.N.N.F.F.A.A.e.e.@.@.&.&.;.;.D e   :                               ",
"                                                                  _ d.d.F.F.V.V.Z.Z.H.H.I.I.L.L.P.P.F.F.F.F.Y.Y.Y.Y.Y.Y.Y.Y.Y.Y.Y.Y.Y.Y.Y.Y.Y.Y.Y.Y.Y.Y.Y.Y.Y.Y.Y.Y.Y.Y.Y.Y.Y.Y.Y.Y.Y.Y.Y.Y.Y.Y.Y.Y.Y.Y.Y.K.K.P.P.G.G.Z.Z.Z.Z.F.F.G.G.N.N.N.N.N.N.N.F.F.A.A.e.e.@.@.&.&.;.;._ D : ,                               ",
"                                                                  1.N.N.N.N.B.B.Y.Y.H.H.F.F.H.H.Y.Y.Y.Y.Y.Y.Y.Y.Y.Y.Y.Y.Y.Y.Y.Y.Y.Y.Y.Y.Y.Y.Y.Y.Y.Y.Y.Y.Y.Y.Y.Y.Y.Y.Y.Y.Y.Y.Y.Y.Y.Y.Y.Y.Y.Y.Y.Y.J.J.Z.K.K.Z.Z.N.N.K.K.Y.Y.S.S.Z.Z.D.D.N.N.N.N.N.V.V.H.H.D.D.L.L.L.L.N.N.N.N.;.;.    O O                           ",
"                                                                  1.N.N.N.N.B.B.Y.Y.H.H.F.F.H.H.Y.Y.Y.Y.Y.Y.Y.Y.Y.Y.Y.Y.Y.Y.Y.Y.Y.Y.Y.Y.Y.Y.Y.Y.Y.Y.Y.Y.Y.Y.Y.Y.Y.Y.Y.Y.Y.Y.Y.Y.Y.Y.Y.Y.Y.Y.Y.Y.J.J.Z.K.K.Z.Z.N.N.K.K.Y.Y.S.S.Z.Z.D.D.N.N.N.N.N.V.V.H.H.D.D.L.L.L.L.N.N.N.N.;.;.                                  ",
"                                                                  b.K.K.C.C.V.V.F.F.F.F.N.N.C.C.P.P.J.J.Y.Y.L.J.J.Y.Y.H.H.F.F.Y.Y.Y.Y.Y.Y.Y.Y.Y.Y.Y.Y.Y.Y.I.Y.Y.P.P.Y.Y.Y.Y.Y.Y.Y.Y.Y.Y.Y.Y.Y.Y.L.L.K.I.I.P.P.K.K.I.I.Y.Y.Y.Y.K.K.F.F.Z.Z.F.F.N.G.G.H.H.N.N.C.C.G.G.F.F.D.D.        #                             ",
"                                                        %         b.K.K.C.C.V.V.F.F.F.F.N.N.C.C.P.P.J.J.Y.Y.L.J.J.Y.Y.H.H.F.F.Y.Y.Y.Y.Y.Y.Y.Y.Y.Y.Y.Y.Y.Y.I.Y.Y.P.P.Y.Y.Y.Y.Y.Y.Y.Y.Y.Y.Y.Y.Y.Y.L.L.K.I.I.P.P.K.K.I.I.Y.Y.Y.Y.K.K.F.F.Z.Z.F.F.N.G.G.H.H.N.N.C.C.G.G.F.F.D.D.        D p                           ",
"                                                      _ _ i.i.d.d.V.Z.Z.V.V.N.N.C.C.P.P.D.D.V.V.B.B.N.N.N.N.N.B.B.Y.Y.Z.Z.N.N.I.I.Y.Y.K.K.F.F.I.I.Y.Y.D.D.N.K.K.G.G.N.N.I.I.Y.Y.Y.Y.H.H.N.N.A.A.Y.Y.I.L.L.Y.Y.K.K.A.A.G.G.S.S.G.G.Y.Y.A.A.K.K.V.N.N.A.A.F.F.N.N.C.C.D.D.Y.Y.y.y.@.@.&.&.    0                     ",
"                                              . #     _ _ i.i.d.d.V.Z.Z.V.V.N.N.C.C.P.P.D.D.V.V.B.B.N.N.N.N.N.B.B.Y.Y.Z.Z.N.N.I.I.Y.Y.K.K.F.F.I.I.Y.Y.D.D.N.K.K.G.G.N.N.I.I.Y.Y.Y.Y.H.H.N.N.A.A.Y.Y.I.L.L.Y.Y.K.K.A.A.G.G.S.S.G.G.Y.Y.A.A.K.K.V.N.N.A.A.F.F.N.N.C.C.D.D.Y.Y.y.y.@.@.&.&.    3                     ",
"                                                      _ _ v.v.N.N.Z.F.F.C.C.N.N.V.V.Z.Z.V.V.J.J.I.I.V.V.N.N.N.A.A.Y.Y.K.K.H.H.Y.Y.J.J.C.C.Z.Z.Y.Y.K.K.Z.Z.F.I.I.Y.Y.Y.Y.Y.Y.Y.Y.Y.Y.L.L.K.K.L.L.Y.Y.D.N.N.G.G.H.H.N.N.N.N.B.B.A.A.Z.Z.N.N.N.N.N.N.N.A.A.S.S.N.N.N.N.N.N.N.N.N.N.N.N.N.N.&.T   . o                 ",
"                                                      _ _ v.v.N.N.Z.F.F.C.C.N.N.V.V.Z.Z.V.V.J.J.I.I.V.V.N.N.N.A.A.Y.Y.K.K.H.H.Y.Y.J.J.C.C.Z.Z.Y.Y.K.K.Z.Z.F.I.I.Y.Y.Y.Y.Y.Y.Y.Y.Y.Y.L.L.K.K.L.L.Y.Y.D.N.N.G.G.H.H.N.N.N.N.B.B.A.A.Z.Z.N.N.N.N.N.N.N.A.A.S.S.N.N.N.N.N.N.N.N.N.N.N.N.N.N.&.&.  .                   ",
"                                              1.1.d.d.z.z.Z.Z.N.N.Z.F.F.A.A.N.N.N.N.S.S.G.G.N.N.N.N.N.N.J.J.P.K.K.K.K.I.I.Y.Y.Y.Y.J.J.Z.Z.F.F.Y.Y.N.N.N.N.Z.P.P.K.K.Y.Y.K.K.P.P.Y.Y.Y.Y.L.L.V.V.L.L.Z.F.F.D.D.I.I.L.L.C.C.G.G.K.K.B.B.G.G.A.A.N.N.N.N.N.N.N.N.N.N.N.N.N.N.N.N.N.V.V.F.F.=.=.      . 2             ",
"                                          @.@.5.5.V.V.S.S.F.F.N.N.N.N.N.N.N.N.N.B.B.P.P.L.L.N.N.N.N.N.N.B.B.C.N.N.N.N.F.F.L.L.K.K.Y.Y.K.K.P.P.I.I.N.N.Z.Z.Y.Z.Z.N.N.A.A.N.N.B.B.P.P.Y.Y.D.D.N.N.J.J.B.C.C.N.N.C.C.Z.Z.B.B.N.N.N.N.N.N.I.I.J.J.N.N.N.N.N.N.N.N.N.N.N.N.N.N.N.N.N.C.C.F.F.c.c.      . .   .         ",
"                                          @.@.5.5.V.V.S.S.F.F.N.N.N.N.N.N.N.N.N.B.B.P.P.L.L.N.N.N.N.N.N.B.B.C.N.N.N.N.F.F.L.L.K.K.Y.Y.K.K.P.P.I.I.N.N.Z.Z.Y.Z.Z.N.N.A.A.N.N.B.B.P.P.Y.Y.D.D.N.N.J.J.B.C.C.N.N.C.C.Z.Z.B.B.N.N.N.N.N.N.I.I.J.J.N.N.N.N.N.N.N.N.N.N.N.N.N.N.N.N.N.C.C.F.F.c.c.      - X X o         ",
"                                  @.@.v.v.N.N.Y.Y.I.I.N.N.N.N.N.N.N.N.N.N.N.N.N.N.N.N.N.N.N.N.N.N.N.N.N.Z.Z.F.B.B.N.N.N.N.A.A.L.L.G.G.N.N.C.C.G.G.N.N.V.V.B.F.F.F.F.K.K.K.K.A.A.Z.Z.G.G.Y.Y.H.H.V.V.H.F.F.N.N.V.V.Z.Z.N.N.N.N.N.N.N.N.Z.Z.B.B.N.N.N.N.N.N.N.N.N.N.N.N.N.N.N.N.N.N.N.C.C.K.K.;.            # *     ",
"                      . ;         @.@.v.v.N.N.Y.Y.I.I.N.N.N.N.N.N.N.N.N.N.N.N.N.N.N.N.N.N.N.N.N.N.N.N.N.Z.Z.F.B.B.N.N.N.N.A.A.L.L.G.G.N.N.C.C.G.G.N.N.V.V.B.F.F.F.F.K.K.K.K.A.A.Z.Z.G.G.Y.Y.H.H.V.V.H.F.F.N.N.V.V.Z.Z.N.N.N.N.N.N.N.N.Z.Z.B.B.N.N.N.N.N.N.N.N.N.N.N.N.N.N.N.N.N.N.N.C.C.K.K.;.              >     ",
"                              1.1.V.V.J.J.Z.Z.N.N.N.N.N.N.N.N.N.N.N.N.N.N.N.N.N.N.N.N.N.N.N.N.N.N.N.N.N.Z.Z.F.Z.Z.B.B.V.V.V.V.Z.Z.Z.Z.F.F.C.C.N.N.N.N.C.C.D.V.V.Z.Z.S.S.H.H.V.V.G.G.A.A.H.H.D.D.N.N.A.H.H.I.I.H.H.K.K.C.C.N.N.N.N.N.N.N.N.N.N.N.N.N.N.N.N.N.N.N.N.N.N.N.N.N.N.N.N.N.N.N.0.0.                      ",
"                  O           1.1.V.V.J.J.Z.Z.N.N.N.N.N.N.N.N.N.N.N.N.N.N.N.N.N.N.N.N.N.N.N.N.N.N.N.N.N.Z.Z.F.Z.Z.B.B.V.V.V.V.Z.Z.Z.Z.F.F.C.C.N.N.N.N.C.C.D.V.V.Z.Z.S.S.H.H.V.V.G.G.A.A.H.H.D.D.N.N.A.H.H.I.I.H.H.K.K.C.C.N.N.N.N.N.N.N.N.N.N.N.N.N.N.N.N.N.N.N.N.N.N.N.N.N.N.N.N.N.N.N.0.0.                      ",
"                      i.i.N.N.N.N.N.N.N.N.N.N.N.N.N.N.N.N.N.N.N.N.N.N.N.N.N.N.N.N.N.N.N.N.N.N.N.N.N.N.N.N.N.N.N.N.P.P.G.G.N.N.N.N.V.V.F.F.S.S.N.N.N.N.S.S.F.B.B.N.N.D.D.D.D.N.N.J.J.C.C.N.N.N.N.N.N.N.N.N.D.D.C.C.N.N.N.N.N.N.N.N.N.N.N.N.N.N.N.N.N.N.N.N.N.N.N.N.N.N.N.N.N.e.e.1.1.@.@.              e .   @     ",
"                      i.i.N.N.N.N.N.N.N.N.N.N.N.N.N.N.N.N.N.N.N.N.N.N.N.N.N.N.N.N.N.N.N.N.N.N.N.N.N.N.N.N.N.N.N.N.P.P.G.G.N.N.N.N.V.V.F.F.S.S.N.N.N.N.S.S.F.B.B.N.N.D.D.D.D.N.N.J.J.C.C.N.N.N.N.N.N.N.N.N.D.D.C.C.N.N.N.N.N.N.N.N.N.N.N.N.N.N.N.N.N.N.N.N.N.N.N.N.N.N.N.N.N.e.e.1.1.@.@.                    #     ",
"                          &.&.v.v.N.N.N.N.N.N.N.N.N.N.N.N.N.N.N.N.N.N.N.N.N.N.N.N.N.N.N.N.N.N.N.N.N.N.N.N.N.N.N.N.N.N.N.N.G.G.G.G.N.N.N.N.N.N.N.N.Y.Y.I.I.N.N.N.N.N.N.N.Z.Z.B.B.N.N.N.N.N.N.N.N.N.N.N.N.N.N.N.N.N.N.N.N.N.N.N.N.N.N.N.N.N.N.N.N.N.N.N.N.N.N.N.N.d.d.6.6.                . X .       X O           ",
"                          &.&.v.v.N.N.N.N.N.N.N.N.N.N.N.N.N.N.N.N.N.N.N.N.N.N.N.N.N.N.N.N.N.N.N.N.N.N.N.N.N.N.N.N.N.N.N.N.G.G.G.G.N.N.N.N.N.N.N.N.Y.Y.I.I.N.N.N.N.N.N.N.Z.Z.B.B.N.N.N.N.N.N.N.N.N.N.N.N.N.N.N.N.N.N.N.N.N.N.N.N.N.N.N.N.N.N.N.N.N.N.N.N.N.N.N.N.d.d.6.6.                              #           ",
"                              1.1._ _ 6.6.k.k.N.N.N.N.N.N.N.N.N.N.N.N.N.N.N.N.N.N.N.N.N.N.N.N.N.N.N.N.N.N.N.N.N.N.N.N.N.N.F.F.H.H.N.N.N.N.N.N.N.N.N.N.N.N.N.N.N.N.N.B.B.K.K.A.A.N.N.N.N.N.N.N.N.N.N.N.N.N.N.N.N.N.N.N.N.N.N.N.N.N.N.N.N.N.N.N.N.1.1._ _ 1.1.0.0.                                                  ",
"            =                 1.1._ _ 6.6.k.k.N.N.N.N.N.N.N.N.N.N.N.N.N.N.N.N.N.N.N.N.N.N.N.N.N.N.N.N.N.N.N.N.N.N.N.N.N.N.F.F.H.H.N.N.N.N.N.N.N.N.N.N.N.N.N.N.N.N.N.B.B.K.K.A.A.N.N.N.N.N.N.N.N.N.N.N.N.N.N.N.N.N.N.N.N.N.N.N.N.N.N.N.N.N.N.N.N.1.1._ _ 1.1.0.0.                                                  ",
"                              4 D                 i.i.d.d.N.N.N.N.N.N.N.N.N.N.N.N.N.N.N.N.N.N.N.N.N.N.N.N.N.N.N.N.N.N.N.N.N.N.N.N.N.N.N.N.N.N.N.N.N.N.N.N.N.N.N.N.N.N.N.N.N.N.N.N.N.N.N.N.N.N.N.N.N.N.N.N.N.N.N.N.N.N.N.N.N.N.N.N.k.k.&.&.    _                                                                   ",
"                                .                 i.i.d.d.N.N.N.N.N.N.N.N.N.N.N.N.N.N.N.N.N.N.N.N.N.N.N.N.N.N.N.N.N.N.N.N.N.N.N.N.N.N.N.N.N.N.N.N.N.N.N.N.N.N.N.N.N.N.N.N.N.N.N.N.N.N.N.N.N.N.N.N.N.N.N.N.N.N.N.N.N.N.N.N.N.N.N.N.k.k.&.&.    _                                                                   ",
"                                                          1.1._ _ e.i.i.N.N.N.N.N.N.N.N.N.N.N.N.N.N.N.N.N.N.N.N.N.N.N.N.N.N.N.N.N.N.N.N.N.N.N.N.N.N.N.N.N.N.N.N.N.N.N.N.N.N.N.N.N.N.N.N.N.N.N.N.N.N.N.N.N.N.N.N.N.N.N.N.N.6.6.N.N.@.@.                                                                            ",
"                                                          1.1._ _ e.i.i.N.N.N.N.N.N.N.N.N.N.N.N.N.N.N.N.N.N.N.N.N.N.N.N.N.N.N.N.N.N.N.N.N.N.N.N.N.N.N.N.N.N.N.N.N.N.N.N.N.N.N.N.N.N.N.N.N.N.N.N.N.N.N.N.N.N.N.N.N.N.N.N.N.6.6.N.N.@.@.                                                                            ",
"                                                                    &.&.&.&.1.1.N.N.N.N.v.v.d.d.N.N.N.N.N.N.N.N.N.N.N.N.N.N.N.N.N.N.N.N.N.N.N.N.N.N.N.N.N.N.N.N.N.N.N.N.N.N.N.N.N.N.N.N.k.k.k.k.v.v._     6.6.d.d.0.0.i.i.i.i.                                                                                    ",
"                                                                    &.&.&.&.1.1.N.N.N.N.v.v.d.d.N.N.N.N.N.N.N.N.N.N.N.N.N.N.N.N.N.N.N.N.N.N.N.N.N.N.N.N.N.N.N.N.N.N.N.N.N.N.N.N.N.N.N.N.k.k.k.k.v.v._     6.6.d.d.0.0.i.i.i.i.                                                                                    ",
"                                                                                        e.e.    &.&.i.i.d.d.0.N.N.N.N.N.N.N.N.N.N.N.N.N.N.N.N.k.k.i.i.N.N.6.d.d.N.N.N.N.6.6.i.i.k.k.6.6.        _ _                       ;.;.                                                                                    ",
"                                                                                        e.e.    &.&.i.i.d.d.0.N.N.N.N.N.N.N.N.N.N.N.N.N.N.N.N.k.k.i.i.N.N.6.d.d.N.N.N.N.6.6.i.i.k.k.6.6.        _ /                       } N                                                                                     ",
"                                                                                                    &.&.N.N.  6.6.e.e.        0.0.&.&.@.@.i.i.        _ _       @.@.;.;.                            +                                                                                                             ",
"                                                                                                    &.&.N.N.  6.6.e.e.        0.0.&.&.@.@.i.i.        _ _       @.@.;.;.                                                                                                                                          ",
"                                                                                                                                                                                                                                                                                                                  ",
"                                                                                                            X + & 2 8                                 * .                                                                                                                                                         ",
"                                                                                                                                                                                                                                                                                                                  ",
"                                                                                                                                                                                                                                                                                                                  ",
"                                                                                                                                                                                                                                                                                                                  ",
"                                                                                                                                                                                                                                                                                                                  ",
"                                                                                                                                                                                                                                                                                                                  ",
"                                                                                                                                                                                                                                                                                                                  ",
"                                                                                                                                                                                                                                                                                                                  ",
"                                                                                                                                                                                                                                                                                                                  ",
"                                                                                                                                                                                                                                                                                                                  "
};
